output--667626_18933d713e
A young girl in a pink bathing suit is playing in the water

output--3637013_c675de7705
A group of people are walking along a river.

output--10815824_2997e03d76
A man is riding a horse on a horse.

output--12830823_87d2654e31
A man in a white shirt is jumping into a pool.

output--17273391_55cfc7d3d4
A man stands on a beach with a stick in its mout

output--19212715_20476497a3
A man in a yellow shirt is on a boat in the water

output--23445819_3a458716c1
Two dogs play in the grass.

output--27782020_4dab210360
A man in a red dress is walking down a street.

output--33108590_d685bfe51c
A group of people sit in a line of seats.

output--35506150_cbdb630f4f
A man sits on a bench in front of a tree.

output--36422830_55c844bc2d
A man drives down a counry road in the mud.

output--41999070_838089137e
A black and white dog running through the water

output--42637986_135a9786a6
Two people sit on a dock on a beach.

output--42637987_866635edf6
A group of people sit on a bench

output--44129946_9eeb385d77
A man sits on a boat in the water.
output--44856031_0d82c2c7d1
A brown dog is running in the grass.

output--47870024_73a4481f7d
A man is doing a trick on a skateboard on a skateboy

output--47871819_db55ac4699
A soccer player in a red shirt is kicking a soccer ball

output--49553964_cee950f3ba
A man in a blue wetsuit is surfing in the ocean.

output--50030244_02cd4de372
A small dog running in the grass.

output--53043785_c468d6f931
A man in a black wetsuit is running on the beach

output--54501196_a9ac9d66f2
A man is standing on the edge of a cliff overlooking

output--54723805_bcf7af3f16
A man stands on a mountain with a mountain.

output--55135290_9bed5c4ca3
A person on a bmx bike jumping over a hill.

output--55470226_52ff517151
A man wearing a red jacket is standing on a snowy mountain

output--55473406_1d2271c1f2
A man in a red jacket is skiing down a snowy hill

output--56489627_e1de43de34
A group of people are standing on a rocky mountain

output--56494233_1824005879
A man stands on a snowy mountain.

output--57417274_d55d34e93e
A group of people are on a snowy mountain.

output--57422853_b5f6366081
A man in a red jacket is standing in the snow.
output--58357057_dea882479e
A man in a red jacket stands on a snowy mountain

output--58363928_6f7074608c
A mountain climber is climbing up a mountain.

output--58363930_0544844edd
A man in a red jacket is climbing a snowy mountain

output--58368365_03ed3e5bdf
I man is standing on a mountain with a mountain

output--61209225_8512e1dad5
A group of people play in a grassy field.

output--69189650_6687da7280
A brown dog running in the snow.

output--69710411_2cf537f61f
A group of people sit on a balcony.

output--95734036_bef6d1a871
A group of people are riding on a snowy hill.

output--95734038_2ab5783da7
A man is riding a bike on a rocky mountain.

output--95783195_e1ba3f57ca
A man in a red jacket is snowboarding on a snowy

output--96399948_b86c61bfe6
A man in a red uniform is playing with a football

output--96420612_feb18fc6c6
A man in a blue shirt is jumping into the air on a surf

output--96973080_783e375945
A brown dog is running in the snow.

output--96978713_775d66a18d
A man stands on a cliff overlooking a river.

output--96985174_31d4c6f06d
A man stands on a snowy mountain.
output--110595925_f3395c8bd6
A man riding a bike on a dirt road.

output--111537217_082a4ba060
A man climbing a rock wall.

output--132489044_3be606baf7
A man in a red shirt is sitting on a couch.

output--190638179_be9da86589
A group of people are driving on a dirt trail.

output--surfing
A man is riding a wave in the snow.
